…
generated quantities {
  vector[N] yhat = multi_normal_cholesky_rng(mu, L_K);
}

在 generated quantities 代码块中计算预测值 yhat。

采样点的观测值服从多元正态分布，预测 yhat

# 对数高斯模型
fit_rongelap_gaussian$summary(
  variables = c("yhat"),
  .num_args = list(sigfig = 4, notation = "dec")
)
#> # A tibble: 157 × 10
#>    variable    mean  median      sd    mad     q5   q95   rhat ess_bulk ess_tail
#>    <chr>    <dec:4> <dec:4> <dec:4> <dec:> <dec:> <dec> <dec:>  <dec:4>  <dec:4>
#>  1 yhat[1]    1.773   1.781  0.6608 0.6190 0.6499 2.841 1.000     1701.    1648.
#>  2 yhat[2]    1.767   1.768  0.6607 0.6587 0.6574 2.817 1.000     1471.    1352.
#>  3 yhat[3]    1.769   1.769  0.6655 0.6471 0.6693 2.872 0.9997    1880.    1414.
#>  4 yhat[4]    1.771   1.769  0.6727 0.6511 0.6781 2.873 1.001     1464.    1604.
#>  5 yhat[5]    1.752   1.742  0.6384 0.6231 0.7162 2.781 0.9996    1935.    1571.
#>  6 yhat[6]    1.761   1.766  0.6579 0.6363 0.6911 2.820 1.003     1960.    1748.
#>  7 yhat[7]    1.747   1.745  0.6605 0.6252 0.6535 2.789 1.001     1818.    1378.
#>  8 yhat[8]    1.754   1.759  0.6285 0.5961 0.7112 2.750 1.001     1934.    1768.
#>  9 yhat[9]    1.752   1.748  0.6439 0.6385 0.7142 2.833 1.001     1972.    1734.
#> 10 yhat[10]   1.755   1.757  0.6631 0.6253 0.6733 2.841 1.001     1867.    1608.
#> # ℹ 147 more rows
…
