…
加载湖南省区县级行政区划边界地图数据

hunan_geo <- sf::read_sf("data/湖南省.json")
hunan_geo

## Simple feature collection with 122 features and 9 fields
## Geometry type: MULTIPOLYGON
## Dimension:     XY
## Bounding box:  xmin: 108.8 ymin: 24.64 xmax: 114.3 ymax: 30.13
## Geodetic CRS:  WGS 84
## # A tibble: 122 × 10
##    adcode name   childrenNum level    parent     subFeatureIndex center centroid
##     <int> <chr>        <int> <chr>    <chr>                <int> <list> <list>  
##  1 430102 芙蓉区           0 district "{ \"adco…               0 <dbl>  <dbl>   
##  2 430103 天心区           0 district "{ \"adco…               1 <dbl>  <dbl>   
##  3 430104 岳麓区           0 district "{ \"adco…               2 <dbl>  <dbl>   
##  4 430105 开福区           0 district "{ \"adco…               3 <dbl>  <dbl>   
##  5 430111 雨花区           0 district "{ \"adco…               4 <dbl>  <dbl>   
##  6 430112 望城区           0 district "{ \"adco…               5 <dbl>  <dbl>   
##  7 430121 长沙县           0 district "{ \"adco…               6 <dbl>  <dbl>   
##  8 430181 浏阳市           0 district "{ \"adco…               7 <dbl>  <dbl>   
##  9 430182 宁乡市           0 district "{ \"adco…               8 <dbl>  <dbl>   
## 10 430202 荷塘区           0 district "{ \"adco…               0 <dbl>  <dbl>   
## # ℹ 112 more rows
## # ℹ 2 more variables: acroutes <list>, geometry <MULTIPOLYGON [°]>

加载 2023 年湖南省各区县的数据（数据来自湖南省统计局发布的统计年鉴 2024）

hunan_book <- readxl::read_xlsx(path = "data/湖南省各区县统计数据.xlsx", sheet = "2023") 
hunan_book

## # A tibble: 124 × 13
##    市州   区县   行政编码 年末常住人口 年末常住人口2020 常住人口变化 城镇化率
##    <chr>  <chr>     <dbl>        <dbl>            <dbl>        <dbl>    <dbl>
##  1 长沙市 芙蓉区   430102         64.4             64.3         0.14    100  
##  2 长沙市 天心区   430103         89.4             83.7         5.68     99.1
##  3 长沙市 岳麓区   430104        167.             153.         13.6      94.6
##  4 长沙市 开福区   430105         88.2             82.2         6.03     96.6
##  5 长沙市 雨花区   430111        129.             127.          2.25     97.5
##  6 长沙市 望城区   430112         98.4             89.1         9.29     79.8
##  7 长沙市 长沙县   430121        143.             138.          5.84     75.1
##  8 长沙市 浏阳市   430181        144.             143.          0.61     63.8
##  9 长沙市 宁乡市   430182        128.             126.          1.74     61.9
## 10 株洲市 荷塘区   430202         34.3             34.9        -0.57     98.2
## # ℹ 114 more rows
## # ℹ 6 more variables: 地区生产总值 <dbl>, 人均GDP <dbl>, 房地产开发投资 <dbl>,
## #   固定资产投资增速 <dbl>, 社会消费品零售总额 <dbl>,
## #   社会消费品零售总额增速 <dbl>
…
