…
<figure>
<img src="/img/maps-in-r/sf-alaska.png" class="full" alt="Figure 19: sf 包绘制多边形数据" /><figcaption aria-hidden="true">Figure 19: <strong>sf</strong> 包绘制多边形数据</figcaption>
</figure>

``` r
data(world, package = 'spData')
world
# Simple feature collection with 177 features and 10 fields
# Geometry type: MULTIPOLYGON
# Dimension:     XY
# Bounding box:  xmin: -180 ymin: -89.9 xmax: 180 ymax: 83.65
# Geodetic CRS:  WGS 84
# # A tibble: 177 × 11
#    iso_a2 name_long   continent  region_un subregion  type   area_km2
#  * <chr>  <chr>       <chr>      <chr>     <chr>      <chr>     <dbl>
#  1 FJ     Fiji        Oceania    Oceania   Melanesia  Sover…   1.93e4
#  2 TZ     Tanzania    Africa     Africa    Eastern A… Sover…   9.33e5
#  3 EH     Western Sa… Africa     Africa    Northern … Indet…   9.63e4
#  4 CA     Canada      North Ame… Americas  Northern … Sover…   1.00e7
#  5 US     United Sta… North Ame… Americas  Northern … Count…   9.51e6
#  6 KZ     Kazakhstan  Asia       Asia      Central A… Sover…   2.73e6
#  7 UZ     Uzbekistan  Asia       Asia      Central A… Sover…   4.61e5
#  8 PG     Papua New … Oceania    Oceania   Melanesia  Sover…   4.65e5
#  9 ID     Indonesia   Asia       Asia      South-Eas… Sover…   1.82e6
# 10 AR     Argentina   South Ame… Americas  South Ame… Sover…   2.78e6
# # … with 167 more rows, and 4 more variables: pop <dbl>,
# #   lifeExp <dbl>, gdpPercap <dbl>, geom <MULTIPOLYGON [°]>
```
…
