…
模型结果分析和解释

数据操作

dat <- read.csv(file = "data/入院等待时间预测.csv", header = TRUE, check.names = FALSE, fileEncoding = "GBK")
dat$开住院条日期 <- factor(dat$开住院条日期)
dat$性别 <- factor(dat$性别)
dat$入院疾病分类 <- factor(dat$入院疾病分类)
dat$入院目的 <- factor(dat$入院目的)
dat$住院类别 <- factor(dat$住院类别)
dat$入院病情 <- factor(dat$入院病情)
dat$Doctor <- factor(dat$Doctor)
tibble::as_tibble(dat)

# A tibble: 2,625 × 11
   WaitingTime 门诊次 住院次 开住院条日期 性别   年龄 入院疾病分类 入院目的
         <dbl>  <int>  <int> <fct>        <fct> <int> <fct>        <fct>   
 1         1        2      1 3            0        42 3            1       
 2         1.2      7      1 3            0        32 1            1       
 3        20       43      1 3            1        59 1            1       
 4         6        1      1 3            1         9 3            1       
 5         8.9      3      1 3            1        45 3            1       
 6         2.9      1      1 3            1        73 3            1       
 7         7.9     10      1 3            0        50 4            1       
 8         2.8      3      1 3            1        25 1            1       
 9         2.7      6      1 3            1        14 2            1       
10         5        2      1 3            1        20 3            1       
# … with 2,615 more rows, and 3 more variables: 住院类别 <fct>, 入院病情 <fct>,
#   Doctor <fct>
…
<img src="{{< blogdown/postref >}}index_files/figure-html/unnamed-chunk-5-1.png" width="672" />

去掉等待时间为 0，门诊次为 0 的记录，住院次数特别多的情况

年龄标准化，门诊次对数变换，开住院条日期缺失单独作为一类

将罕见的情况，对模型来说，可以认为是异常情况

# 去掉异常值
sub_dat <- subset(dat, WaitingTime != 0 & 门诊次 != 0 & 住院次 <= 10)
# 年龄标准化，门诊次对数变换
sub_dat <- transform(sub_dat, 年龄 = (年龄 - mean(年龄)) / sd(年龄), 门诊次 = log(门诊次), 开住院条日期 = ifelse(is.na(开住院条日期), 0, 开住院条日期))
tibble::as_tibble(sub_dat)

# A tibble: 2,356 × 11
   WaitingTime 门诊次 住院次 开住院条日期 性别    年龄 入院疾病分类 入院目的
         <dbl>  <dbl>  <int>        <dbl> <fct>  <dbl> <fct>        <fct>   
 1         1    0.693      1            3 0      0.277 3            1       
 2         1.2  1.95       1            3 0     -0.229 1            1       
 3        20    3.76       1            3 1      1.14  1            1       
 4         6    0          1            3 1     -1.39  3            1       
 5         8.9  1.10       1            3 1      0.428 3            1       
 6         2.9  0          1            3 1      1.84  3            1       
 7         7.9  2.30       1            3 0      0.681 4            1       
 8         2.8  1.10       1            3 1     -0.582 1            1       
 9         2.7  1.79       1            3 1     -1.14  2            1       
10         5    0.693      1            3 1     -0.835 3            1       
# … with 2,346 more rows, and 3 more variables: 住院类别 <fct>, 入院病情 <fct>,
#   Doctor <fct>
…
